Chapter 7 Multiple Treatment Designs | Data Science for Agricultural Professionals
…
We can see from the output that the effect of Amendment is significant at both levels of Innoculant.

What about the other way around? We simply take the code above and reverse the positions of Amendment and Innoculation.

biochar %>%
  group_by(Amendment) %>%
  do(tidy(aov(.$Yield ~ .$Block + .$Innoculation)))

## # A tibble: 21 x 7
## # Groups:   Amendment [7]
##    Amendment                  term           df   sumsq meansq statistic p.value
##    <chr>                      <chr>       <dbl>   <dbl>  <dbl>     <dbl>   <dbl>
##  1 Control                    .$Block         5  2.26   0.452     1.27    0.401 
##  2 Control                    .$Innocula~     1  2.61   2.61      7.32    0.0425
##  3 Control                    Residuals       5  1.78   0.357    NA      NA     
##  4 Egyptian.acacia.biochar..~ .$Block         5  4.01   0.801     1.68    0.292 
##  5 Egyptian.acacia.biochar..~ .$Innocula~     1  0.266  0.266     0.556   0.489 
##  6 Egyptian.acacia.biochar..~ Residuals       5  2.39   0.478    NA      NA     
##  7 Egyptian.acacia.biochar..~ .$Block         5  4.67   0.934     0.779   0.604 
##  8 Egyptian.acacia.biochar..~ .$Innocula~     1  0.0225 0.0225    0.0188  0.896 
##  9 Egyptian.acacia.biochar..~ Residuals       5  5.99   1.20     NA      NA     
## 10 FYM.biochar..0.1..         .$Block         5 12.3    2.47      3.30    0.108 
## # ... with 11 more rows
…
